{
  "__type__": "cc.AnimationClip",
  "_name": "red",
  "_objFlags": 0,
  "_native": "",
  "_duration": 0.65,
  "sample": 40,
  "speed": 1,
  "wrapMode": 2,
  "curveData": {
    "comps": {
      "cc.Sprite": {
        "spriteFrame": [
          {
            "frame": -0.025,
            "value": {
              "__uuid__": "f07f8e61-5c62-4d63-b216-5761f53a8761"
            }
          },
          {
            "frame": 0.275,
            "value": {
              "__uuid__": "575ae58d-4766-451f-81b2-a66856778ed6"
            }
          },
          {
            "frame": 0.625,
            "value": {
              "__uuid__": "28b35342-ca2e-40f7-8bc3-27af72800060"
            }
          }
        ]
      }
    }
  },
  "events": []
}